…
### Retrieve news

The `get_news()` function returns news articles from the Newsriver API
matching a user provided search query. These queries must be valid
[Lucene query
strings](https://lucene.apache.org/core/2_9_4/queryparsersyntax.html),
with the option to search the title and text fields of articles. See the
`?get_news` documentation for more information:

``` r
get_news(query = "Google")
#> # A tibble: 3,200 x 26
#>   id    publishDate discoverDate title language text  structuredText url  
#>   <chr> <chr>       <chr>        <chr> <chr>    <chr> <chr>          <chr>
#> 1 QMTZ… 2019-05-23… 2019-05-23T… How … en       Goog… "<div> \n <p>… http…
#> 2 pIPn… 2019-05-24… 2019-05-24T… Goog… en       Goog… "<div> \n <p>… http…
#> 3 iSWA… 2019-05-23… 2019-05-23T… Goog… en       It w… "<div> \n <p>… http…
#> 4 zRmU… 2019-05-01… 2019-05-24T… Goog… en       One … "<div>\n  One… http…
#> 5 Ronp… <NA>        2019-05-23T… Pizz… en       Is i… "<div> \n <sp… http…
#> # … with 3,195 more rows, and 18 more variables

get_news("Google", from = "2019-05-01", to = "2019-06-01")
#> # A tibble: 3,200 x 26
#>   id    publishDate discoverDate title language text  structuredText url  
#>   <chr> <chr>       <chr>        <chr> <chr>    <chr> <chr>          <chr>
#> 1 29nG… 2019-05-02… 2019-05-02T… How … en       "Goo… "<div> \n <p>… http…
#> 2 jAgI… 2019-05-02… 2019-05-02T… How … en       Goog… "<div> \n <p>… http…
#> 3 uDVD… 2019-05-01… 2019-05-01T… Goog… en       "Goo… "<div> \n <p>… http…
#> 4 tkYy… <NA>        2019-05-02T… Goog… en       "Bot… "<div> \n <p>… http…
#> 5 MieF… 2019-05-01… 2019-05-01T… Walm… en       Lead… "<p>Leading u… http…
#> # … with 3,195 more rows, and 18 more variables

get_news("title:Google AND text:\"Google Cloud\"", language = "it")
#> # A tibble: 2,806 x 24
#>   id    publishDate discoverDate title language text  structuredText url  
#>   <chr> <chr>       <chr>        <chr> <chr>    <chr> <chr>          <chr>
#> 1 6fRj… 2019-05-23… 2019-05-23T… SAP … it       SAP … "<span> <p><a… http…
#> 2 t98A… 2019-05-23… 2019-05-23T… Goog… it       Con … "<p>Con l’arr… http…
#> 3 72ZT… 2019-05-23… 2019-05-23T… Sams… it       Sams… "<p>Samsung a… http…
#> 4 eOHQ… 2019-05-23… 2019-05-23T… Adob… it       Disp… "<div> \n <p>… http…
#> 5 GBty… 2019-05-23… 2019-05-23T… Veea… it       Veea… "<div> \n <p>… http…
#> # … with 2,801 more rows, and 16 more variables
```

### Clean news

The `clean_news()` function wrangles the messy data fetched by
get\_news, returning a tidy tibble with sensible defaults.

``` r
news <- get_news(query = "Google")

clean_news(news)
#> # A tibble: 1,626 x 4
#>   text                  title                discoverDate website.domainNa…
#>   <chr>                 <chr>                <date>       <chr>            
#> 1 google is not just t… how google collects… 2019-05-23   practicalecommer…
#> 2 google has officiall… google releases gro… 2019-05-24   bgr.in           
#> 3 it was more than a y… google pay and assi… 2019-05-23   slashgear.com    
#> 4 one of the things go… google search, maps… 2019-05-24   ubergizmo.com    
#> 5 google’s radical new… google rolls out ra… 2019-05-23   forbes.com       
#> # … with 1,621 more rows
```
…
